{
    "name": "python3-dateparser",
    "buildsystem": "simple",
    "build-commands": [
        "pip3 install --verbose --exists-action=i --no-index --find-links=\"file://${PWD}\" --prefix=${FLATPAK_DEST} \"dateparser\" --no-build-isolation"
    ],
    "sources": [
        {
            "type": "file",
            "url": "https://files.pythonhosted.org/packages/d4/46/e8002faae3d1df7d7a0a3aa0cb4b2ccd805c3a71fb507b06446012b28790/tzlocal-4.3-py3-none-any.whl",
            "sha256": "b44c4388f3d34f25862cfbb387578a4d70fec417649da694a132f628a23367e2"
        },
        {
            "type": "file",
            "url": "https://files.pythonhosted.org/packages/2e/09/fbd3c46dce130958ee8e0090f910f1fe39e502cc5ba0aadca1e8a2b932e5/pytz-2022.7.1-py2.py3-none-any.whl",
            "sha256": "78f4f37d8198e0627c5f1143240bb0206b8691d8d7ac6d78fee88b78733f8c4a"
        },
        {
            "type": "file",
            "url": "https://files.pythonhosted.org/packages/d8/29/bd8de07107bc952e0e2783243024e1c125e787fd685725a622e4ac7aeb3c/regex-2023.3.23.tar.gz",
            "sha256": "dc80df325b43ffea5cdea2e3eaa97a44f3dd298262b1c7fe9dbb2a9522b956a7"
        },
        {
            "type": "file",
            "url": "https://files.pythonhosted.org/packages/7a/bf/457ed5be028fb235f8f5ad40b5ddbf67023e0017090ea324d0fe6239a73c/dateparser-1.1.8-py2.py3-none-any.whl",
            "sha256": "070b29b5bbf4b1ec2cd51c96ea040dc68a614de703910a91ad1abba18f9f379f"
        },
        {
            "type": "file",
            "url": "https://files.pythonhosted.org/packages/36/7a/87837f39d0296e723bb9b62bbb257d0355c7f6128853c78955f57342a56d/python_dateutil-2.8.2-py2.py3-none-any.whl",
            "sha256": "961d03dc3453ebbc59dbdea9e4e11c5651520a876d0f4db161e8674aae935da9"
        },
        {
            "type": "file",
            "url": "https://files.pythonhosted.org/packages/fa/5e/f99a7df3ae2079211d31ec23b1d34380c7870c26e99159f6e422dcbab538/tzdata-2022.7-py2.py3-none-any.whl",
            "sha256": "2b88858b0e3120792a3c0635c23daf36a7d7eeeca657c323da299d2094402a0d"
        },
        {
            "type": "file",
            "url": "https://files.pythonhosted.org/packages/eb/73/3eaab547ca809754e67e06871cff0fc962bafd4b604e15f31896a0f94431/pytz_deprecation_shim-0.1.0.post0-py2.py3-none-any.whl",
            "sha256": "8314c9692a636c8eb3bda879b9f119e350e93223ae83e70e80c31675a0fdc1a6"
        }
    ]
}